…
## See also

[`brreg_entity()`](https://sondreskarsten.github.io/tidybrreg/reference/brreg_entity.md)
for the function that uses this dictionary.

Other tidybrreg reference data:
[`legal_forms`](https://sondreskarsten.github.io/tidybrreg/reference/legal_forms.md),
[`role_groups`](https://sondreskarsten.github.io/tidybrreg/reference/role_groups.md),
[`role_types`](https://sondreskarsten.github.io/tidybrreg/reference/role_types.md)

## Examples

``` r
field_dict
#> # A tibble: 49 × 3
#>    api_path                          col_name           type     
#>    <chr>                             <chr>              <chr>    
#>  1 organisasjonsnummer               org_nr             character
#>  2 navn                              name               character
#>  3 organisasjonsform.kode            legal_form         character
#>  4 organisasjonsform.beskrivelse     legal_form_desc    character
#>  5 stiftelsesdato                    founding_date      Date     
#>  6 registreringsdatoEnhetsregisteret registration_date  Date     
#>  7 antallAnsatte                     employees          integer  
#>  8 harRegistrertAntallAnsatte        employees_reported logical  
#>  9 hjemmeside                        website            character
#> 10 naeringskode1.kode                nace_1             character
#> # ℹ 39 more rows
…
