Norwegian legal form codes with English translations — legal_forms • tidybrreg
…
    See also

    brreg_label() to translate legal form codes in entity data.

Other tidybrreg reference data:
field_dict,
role_groups,
role_types

    Examples

legal_forms
#> # A tibble: 44 × 4
#>    code  name_no                                                 expired name_en
#>    <chr> <chr>                                                   <chr>   <chr>  
#>  1 AAFY  Underenhet til ikke-næringsdrivende                     NA      Establ…
#>  2 ADOS  Administrativ enhet - offentlig sektor                  NA      Admini…
#>  3 ANNA  Annen juridisk person                                   NA      Other …
#>  4 ANS   Ansvarlig selskap med solidarisk ansvar                 NA      Genera…
#>  5 AS    Aksjeselskap                                            NA      Privat…
#>  6 ASA   Allmennaksjeselskap                                     NA      Public…
#>  7 BA    Selskap med begrenset ansvar                            NA      Compan…
#>  8 BBL   Boligbyggelag                                           NA      Housin…
#>  9 BEDR  Underenhet til næringsdrivende og offentlig forvaltning NA      Establ…
#> 10 BO    Andre bo                                                NA      Other …
#> # ℹ 34 more rows
…
