…
[`brreg_roles()`](https://sondreskarsten.github.io/tidybrreg/reference/brreg_roles.md),
[role_groups](https://sondreskarsten.github.io/tidybrreg/reference/role_groups.md).

Other tidybrreg reference data:
[`annotation_infotypes`](https://sondreskarsten.github.io/tidybrreg/reference/annotation_infotypes.md),
[`field_dict`](https://sondreskarsten.github.io/tidybrreg/reference/field_dict.md),
[`legal_forms`](https://sondreskarsten.github.io/tidybrreg/reference/legal_forms.md),
[`role_groups`](https://sondreskarsten.github.io/tidybrreg/reference/role_groups.md)

## Examples

``` r
role_types
#> # A tibble: 24 × 3
#>    code  name_en                 name_no       
#>    <chr> <chr>                   <chr>         
#>  1 LEDE  Chair of the Board      Styrets leder 
#>  2 NEST  Deputy Chair            Nestleder     
#>  3 MEDL  Board Member            Styremedlem   
#>  4 VARA  Alternate Board Member  Varamedlem    
#>  5 OBS   Observer                Observatør    
#>  6 DAGL  CEO / Managing Director Daglig leder  
#>  7 INNH  Sole Proprietor         Innehaver     
#>  8 REVI  Auditor                 Revisor       
#>  9 REGN  Accountant              Regnskapsfører
#> 10 KONT  Contact Person          Kontaktperson 
#> # ℹ 14 more rows
```
